{
  "todos": [
    {
      "limitDate": "2023-01-01T23:00:00.000Z",
      "status": "ABORTED",
      "label": "toto",
      "id": 1,
      "description": "test",
      "groupNames": [
        "group2",
        "group1",
        "BENJAMIN THERON"
      ]
    },
    {
      "limitDate": "2022-11-29T23:00:00.000Z",
      "status": "DONE",
      "label": "test",
      "description": "test",
      "id": 2,
      "groupNames": [
        "group1"
      ]
    },
    {
      "limitDate": null,
      "status": "TODO",
      "label": "rezr",
      "description": "rezr",
      "id": 3,
      "groupNames": []
    },
    {
      "limitDate": "2022-12-06T23:00:00.000Z",
      "status": "TODO",
      "label": "test",
      "description": "test",
      "id": 4,
      "groupNames": []
    },
    {
      "limitDate": "2022-12-22T23:00:00.000Z",
      "status": "TODO",
      "label": "sqdsd",
      "description": "eee",
      "id": 5,
      "groupNames": []
    },
    {
      "limitDate": null,
      "status": "WIP",
      "label": "zaazeazazazaza111111111111111",
      "description": "azezzazazazz1111111111",
      "id": 6,
      "groupNames": [
        "group2"
      ]
    },
    {
      "limitDate": "2022-12-22T23:00:00.000Z",
      "status": "TODO",
      "label": "eeeeeeeeeeeeeeeeeeeeeeeeeeeeeeeeeee",
      "description": "e",
      "id": 7,
      "groupNames": []
    },
    {
      "limitDate": "2023-01-02T23:00:00.000Z",
      "status": "TODO",
      "label": "ben",
      "description": "b",
      "groupNames": [],
      "id": 8
    }
  ],
  "groups": [
    {
      "name": "group1",
      "todos": [
        {
          "limitDate": "2022-11-29T23:00:00.000Z",
          "status": "ABORTED",
          "label": "toto",
          "description": "test",
          "id": 1,
          "groupNames": [
            "group2",
            "group1"
          ]
        },
        {
          "limitDate": "2022-11-29T23:00:00.000Z",
          "status": "DONE",
          "label": "test",
          "description": "test",
          "id": 2,
          "groupNames": [
            "group1"
          ]
        }
      ],
      "id": 1
    },
    {
      "name": "group2",
      "todos": [
        {
          "limitDate": "2022-11-29T23:00:00.000Z",
          "status": "ABORTED",
          "label": "toto",
          "description": "test",
          "id": 1,
          "groupNames": [
            "group2",
            "group1"
          ]
        },
        {
          "limitDate": null,
          "status": "WIP",
          "label": "zaazeazazazaza111111111111111",
          "description": "azezzazazazz1111111111",
          "id": 6,
          "groupNames": [
            {
              "name": "group2"
            }
          ]
        }
      ],
      "id": 2
    },
    {
      "name": "BENJAMIN THERON",
      "todos": [
        {
          "limitDate": "2022-11-29T23:00:00.000Z",
          "status": "ABORTED",
          "label": "toto",
          "description": "test",
          "id": 1,
          "groupNames": [
            "group2",
            "group1",
            "BENJAMIN THERON"
          ]
        },
        {
          "limitDate": "2022-12-22T23:00:00.000Z",
          "status": "TODO",
          "label": "sqdsd",
          "description": "eee",
          "id": 5,
          "groupNames": [
            "BENJAMIN THERON"
          ]
        }
      ],
      "id": 3
    }
  ]
}
